pe/unmsm/cine/entidades/VentaBoleto.class
pe/unmsm/cine/dao/VentasDAO.class
pe/unmsm/cine/entidades/PromocionBoleto.class
pe/unmsm/cine/dao/DiasDAO.class
pe/unmsm/cine/dao/ActoresDAO.class
pe/unmsm/cine/dao/PeliculaGenerosDAO.class
pe/unmsm/cine/entidades/Promocion.class
pe/unmsm/cine/entidades/Empleado.class
pe/unmsm/cine/entidades/Sala.class
pe/unmsm/cine/entidades/Cine.class
pe/unmsm/cine/entidades/Horario.class
pe/unmsm/cine/dao/CiudadDAO.class
pe/unmsm/cine/entidades/Venta.class
pe/unmsm/cine/estructuras/ListaDoble.class
pe/unmsm/cine/entidades/Cliente.class
pe/unmsm/cine/resources/UserResource.class
pe/unmsm/cine/entidades/TipoBoleto.class
pe/unmsm/cine/estructuras/Pila.class
pe/unmsm/cine/dao/BoletosDAO.class
pe/unmsm/cine/dao/VentaPromocionesDAO.class
pe/unmsm/cine/dao/IdiomaDAO.class
pe/unmsm/cine/dao/VentaDulcesDAO.class
pe/unmsm/cine/entidades/ErrorMessage.class
pe/unmsm/cine/dao/EmpleadoDAO.class
pe/unmsm/cine/controlador/RegisterController.class
pe/unmsm/cine/entidades/TipoSala.class
pe/unmsm/cine/estructuras/Pila$Nodo.class
pe/unmsm/cine/dao/TipoBoletosDAO.class
pe/unmsm/cine/dao/PeliculasDAO.class
pe/unmsm/cine/dao/AsientosDAO.class
pe/unmsm/cine/entidades/Entrada.class
pe/unmsm/cine/entidades/Asiento.class
pe/unmsm/cine/entidades/Dulce.class
pe/unmsm/cine/entidades/PeliculaActor.class
pe/unmsm/cine/entidades/PeliculaCine.class
pe/unmsm/cine/dao/AbstractDAO.class
pe/unmsm/cine/entidades/DulcePromocion.class
pe/unmsm/cine/dao/TipoPromocionesDAO.class
pe/unmsm/cine/entidades/Ciudad.class
pe/unmsm/cine/entidades/Genero.class
pe/unmsm/cine/controlador/HomeController.class
pe/unmsm/cine/dao/DulcePromocionesDAO.class
pe/unmsm/cine/entidades/Dia.class
pe/unmsm/cine/entidades/VentaPromocion.class
pe/unmsm/cine/dao/PromocionesDAO.class
pe/unmsm/cine/dao/PeliculaActoresDAO.class
pe/unmsm/cine/dao/GenerosDAO.class
pe/unmsm/cine/dao/CinesDAO.class
pe/unmsm/cine/entidades/Usuario.class
pe/unmsm/cine/dao/PromocionBoletosDAO.class
pe/unmsm/cine/controlador/LoginController.class
pe/unmsm/cine/entidades/Clasificacion.class
pe/unmsm/cine/entidades/Actor.class
pe/unmsm/cine/dao/ClasificacionDAO.class
pe/unmsm/cine/entidades/VentaDulce.class
pe/unmsm/cine/dao/HorariosDAO.class
pe/unmsm/cine/controlador/ConecctionController.class
pe/unmsm/cine/dao/AccesoDB.class
pe/unmsm/cine/entidades/Boleto.class
pe/unmsm/cine/dao/UsuarioDAO.class
pe/unmsm/cine/dao/TipoSalasDAO.class
pe/unmsm/cine/dao/DulcesDAO.class
pe/unmsm/cine/dao/ConfiguracionesDAO.class
pe/unmsm/cine/dao/SalasDAO.class
pe/unmsm/cine/entidades/Pelicula.class
pe/unmsm/cine/entidades/PeliculaGenero.class
pe/unmsm/cine/dao/VentaBoletosDAO.class
pe/unmsm/cine/dao/PerfilesDAO.class
pe/unmsm/cine/estructuras/ListaDoble$NodoDoble.class
pe/unmsm/cine/dao/EstadosDAO.class
pe/unmsm/cine/entidades/Estado.class
pe/unmsm/cine/entidades/Perfil.class
pe/unmsm/cine/entidades/TipoPromocion.class
pe/unmsm/cine/entidades/Empresa.class
pe/unmsm/cine/estructuras/ToArray.class
pe/unmsm/cine/dao/PeliculaCinesDAO.class
pe/unmsm/cine/entidades/Idioma.class
